Name,Team,BodyweightKg,Best3SquatKg,Squat4Kg,Best3BenchKg,Best3DeadliftKg,TotalKg,WeightClassKg,Sex,Division,Event,Equipment,Place,AgeClass
Jenny Hunter,EM,55.7,147.5,,90,165,402.5,56,F,Masters 1,SBD,Single-ply,1,39.5-49.5
G. Lesting,SE,57.9,112.5,,70,130,312.5,60,F,Masters 1,SBD,Single-ply,1,39.5-49.5
J. Banks,YNE,65.6,115,,50,137.5,302.5,67.5,F,Masters 1,SBD,Single-ply,1,39.5-49.5
S. Bradley,SCO,63,105,,50,117.5,272.5,67.5,F,Masters 1,SBD,Single-ply,2,39.5-49.5
Jackie Blasbery,EM,70.5,165,,100,185,450,75,F,Masters 1,SBD,Single-ply,1,39.5-49.5
Susan Tyson,SE,74.9,132.5,,80,145,357.5,75,F,Masters 1,SBD,Single-ply,2,39.5-49.5
C. Wass,EM,74.6,140,,80,120,340,75,F,Masters 1,SBD,Single-ply,3,39.5-49.5
Jean Maton,SM,82.4,172.5,,112.5,182.5,467.5,82.5,F,Masters 1,SBD,Single-ply,1,39.5-49.5
Geraldine Fitzsimmons,SCO,86.2,145,,47.5,140,332.5,90,F,Masters 1,SBD,Single-ply,1,39.5-49.5
Pat Reeves,WM,43,55,,37.5,95,187.5,44,F,Masters 2,SBD,Single-ply,2,49.5-59.5
Enid Dixon,YNE,46.2,60,,40,90,190,48,F,Masters 2,SBD,Single-ply,1,49.5-59.5
Doreen Dowsett,NM,67.1,115,,52.5,152.5,320,67.5,F,Masters 2,SBD,Single-ply,1,49.5-59.5
H. Richards,SC,66.5,105,,65,147.5,317.5,67.5,F,Masters 2,SBD,Single-ply,2,49.5-59.5
Sue Hollands,YNE,81.7,175,181,77.5,165,417.5,82.5,F,Masters 2,SBD,Single-ply,1,49.5-59.5
S. Brown,YNE,59.4,182.5,,90,207.5,480,60,M,Masters 1,SBD,Single-ply,2,39.5-49.5
A. Meek,SW,64.3,175,,85,220,480,67.5,M,Masters 1,SBD,Single-ply,1,39.5-49.5
Steve Walker,EM,74.7,230,,180,252.5,662.5,75,M,Masters 1,SBD,Single-ply,1,39.5-49.5
Karnail Singh,WM,71.5,245,,140,240,625,75,M,Masters 1,SBD,Single-ply,2,39.5-49.5
Allen Ottolangui,EM,74.9,220,,132.5,235,587.5,75,M,Masters 1,SBD,Single-ply,3,39.5-49.5
M. Toland,NM,73.8,200,,127.5,230,557.5,75,M,Masters 1,SBD,Single-ply,4,39.5-49.5
G. Prater,SM,72.4,175,,125,200,500,75,M,Masters 1,SBD,Single-ply,5,39.5-49.5
Nirmal Bassi,YNE,74.7,182.5,,122.5,185,490,75,M,Masters 1,SBD,Single-ply,6,39.5-49.5
R. Wylie,SC,81.6,245,,160,252.5,657.5,82.5,M,Masters 1,SBD,Single-ply,1,39.5-49.5
Philip Guise,WM,82.5,232.5,,165,215,612.5,82.5,M,Masters 1,SBD,Single-ply,2,39.5-49.5
P. Hughes,NW,79.4,230,,152.5,217.5,600,82.5,M,Masters 1,SBD,Single-ply,3,39.5-49.5
M. Macey,SE,80.9,227.5,,122.5,230,580,82.5,M,Masters 1,SBD,Single-ply,4,39.5-49.5
C. Ramshaw,YNE,81.5,220,,145,215,580,82.5,M,Masters 1,SBD,Single-ply,5,39.5-49.5
Jaswinder Singh,WM,86.9,310,,195,280,785,90,M,Masters 1,SBD,Single-ply,1,39.5-49.5
J. Harness,NM,89,270,,170,260,700,90,M,Masters 1,SBD,Single-ply,2,39.5-49.5
J. Rice,EM,88.7,275,,180,230,685,90,M,Masters 1,SBD,Single-ply,3,39.5-49.5
M. Cartman,YNE,86.6,240,,160,260,660,90,M,Masters 1,SBD,Single-ply,4,39.5-49.5
T. Stevenson,YNE,89.5,220,,172.5,227.5,620,90,M,Masters 1,SBD,Single-ply,5,39.5-49.5
J. Banks,YNE,89.8,220,,140,250,610,90,M,Masters 1,SBD,Single-ply,6,39.5-49.5
I. Johnston,NI,84.2,200,,130,260,590,90,M,Masters 1,SBD,Single-ply,7,39.5-49.5
Fran Sonnenfeld,YNE,88.9,205,,145,210,560,90,M,Masters 1,SBD,Single-ply,8,39.5-49.5
David Carter #2,YNE,90.1,292.5,,180,335,807.5,100,M,Masters 1,SBD,Single-ply,1,39.5-49.5
P. Hooker,SW,96.5,280,,175,280,735,100,M,Masters 1,SBD,Single-ply,2,39.5-49.5
P. Barnbrook,WM,95.4,275,,157.5,280,712.5,100,M,Masters 1,SBD,Single-ply,3,39.5-49.5
W. Catterall,NW,98.7,252.5,,167.5,220,640,100,M,Masters 1,SBD,Single-ply,4,39.5-49.5
I. Kinghorn,EM,98.7,245,,200,,,100,M,Masters 1,SBD,Single-ply,DQ,39.5-49.5
Steve Leigh,NW,108.6,285,,252.5,295,832.5,110,M,Masters 1,SBD,Single-ply,1,39.5-49.5
S. Filkins,SW,107.6,300,,195,300,795,110,M,Masters 1,SBD,Single-ply,2,39.5-49.5
C. Brittain,NM,104.1,270,,155,250,675,110,M,Masters 1,SBD,Single-ply,3,39.5-49.5
T. O'Neill,GL,124.9,310,,160,310.5,780.5,125,M,Masters 1,SBD,Single-ply,1,39.5-49.5
B. Lee,YNE,112.7,265,,200,300,765,125,M,Masters 1,SBD,Single-ply,2,39.5-49.5
C. Woodhead,YNE,118.3,280,,170,252.5,702.5,125,M,Masters 1,SBD,Single-ply,3,39.5-49.5
A. Moses,GL,121.9,270,,182.5,250,702.5,125,M,Masters 1,SBD,Single-ply,4,39.5-49.5
R. Simon #1,GL,195.8,250,,215,260,725,125+,M,Masters 1,SBD,Single-ply,1,39.5-49.5
M. Mackay,EM,151.2,240,,220,260,720,125+,M,Masters 1,SBD,Single-ply,2,39.5-49.5
M. James,SM,66.7,190,,145,200,535,67.5,M,Masters 2,SBD,Single-ply,3,49.5-59.5
Stan Macrow,WM,73.2,200,,147.5,227.5,575,75,M,Masters 2,SBD,Single-ply,1,49.5-59.5
Hari Singh Cheema,WM,73.4,225,,127.5,222.5,575,75,M,Masters 2,SBD,Single-ply,2,49.5-59.5
D. Fairhurst,NW,73.6,200,,140,222.5,562.5,75,M,Masters 2,SBD,Single-ply,3,49.5-59.5
A. Singh,YNE,73.4,185,,117.5,210,512.5,75,M,Masters 2,SBD,Single-ply,4,49.5-59.5
Mick Amey,EM,73.7,187.5,,105,217.5,510,75,M,Masters 2,SBD,Single-ply,5,49.5-59.5
William Lincoln,SC,82,250,,180,250,680,82.5,M,Masters 2,SBD,Single-ply,1,49.5-59.5
T. White,WM,79.9,210,,145,240,595,82.5,M,Masters 2,SBD,Single-ply,2,49.5-59.5
N. Eccleston,YNE,80.8,200,,135,207.5,542.5,82.5,M,Masters 2,SBD,Single-ply,3,49.5-59.5
Paul Kerridge,EM,88.9,190,,115,222.5,527.5,90,M,Masters 2,SBD,Single-ply,1,49.5-59.5
Brian Baker,SC,88.4,187.5,,112.5,220,520,90,M,Masters 2,SBD,Single-ply,2,49.5-59.5
Kevin Jane,EM,91.7,277.5,,165,300,742.5,100,M,Masters 2,SBD,Single-ply,1,49.5-59.5
D. Battison,EM,93.3,240,,157.5,255,652.5,100,M,Masters 2,SBD,Single-ply,2,49.5-59.5
C. Booth,NW,97.5,242.5,,157.5,250,650,100,M,Masters 2,SBD,Single-ply,3,49.5-59.5
Ken Williams #1,WA,95.4,240,,140,240,620,100,M,Masters 2,SBD,Single-ply,4,49.5-59.5
Arthur White,EM,104.3,250,,140,305,695,110,M,Masters 2,SBD,Single-ply,1,49.5-59.5
J. Reeves,YNE,108,215,,160,232.5,607.5,110,M,Masters 2,SBD,Single-ply,2,49.5-59.5
Bob Szpalek,WM,110.2,245,,170,272.5,687.5,125,M,Masters 2,SBD,Single-ply,1,49.5-59.5
Andy Kerr,GL,136.5,285,,200,315,800,125+,M,Masters 2,SBD,Single-ply,1,49.5-59.5
D. Turner,NM,128.2,290,,140,235,665,125+,M,Masters 2,SBD,Single-ply,2,49.5-59.5
Roger Powell,NM,67,145,,85,170,400,67.5,M,Masters 3,SBD,Single-ply,3,59.5-69.5
T. Hardy,NI,58.4,125,,80,180,385,60,M,Masters 3,SBD,Single-ply,4,59.5-69.5
George Leggett,EM,72.9,200,,105,210,515,75,M,Masters 3,SBD,Single-ply,1,59.5-69.5
C. Gibbs,SE,72.1,130,,85,215,430,75,M,Masters 3,SBD,Single-ply,2,59.5-69.5
J. Higgins,SC,81.3,195,,127.5,212.5,535,82.5,M,Masters 3,SBD,Single-ply,1,59.5-69.5
B. Tuffnell,WM,81.8,165,,122.5,230,517.5,82.5,M,Masters 3,SBD,Single-ply,2,59.5-69.5
J. Jones,EM,80.9,170,,100,190,460,82.5,M,Masters 3,SBD,Single-ply,3,59.5-69.5
David Kirkland,NM,81.3,150,,117.5,190,457.5,82.5,M,Masters 3,SBD,Single-ply,4,59.5-69.5
R. Vaughan,WM,85.9,240,,130,270,640,90,M,Masters 3,SBD,Single-ply,1,59.5-69.5
N. Anderson,YNE,85.4,170,,140,192.5,502.5,90,M,Masters 3,SBD,Single-ply,2,59.5-69.5
Gavin Walker,YNE,94.4,227.5,,122.5,235,585,100,M,Masters 3,SBD,Single-ply,1,59.5-69.5
T. Cooper,SE,97.4,215,,135,235,585,100,M,Masters 3,SBD,Single-ply,2,59.5-69.5
C. Shepherd,WM,107.9,230,,142.5,240,612.5,110,M,Masters 3,SBD,Single-ply,1,59.5-69.5
